<?xml version="1.0" encoding="UTF-8"?>
<session version="1.0">
<refactoring comment="Delete resource &apos;Proba&apos;" deleteContents="true" description="Delete resource &apos;Proba&apos;" element1="/Proba" flags="7" id="org.eclipse.ltk.core.refactoring.delete.resources" resources="1" stamp="1437649489176"/>
</session>